opencollection: 1.0.0

info:
  name: Production Registry API

request:
  auth:
    type: bearer
    token: "{{jwt_token}}"
  variables:
    - name: base_url
      value: http://27.223.82.66:18080
    - name: jwt_token
      value: eyJhbGciOiJIUzI1NiIsInR5cCI6IkpXVCJ9.eyJ0b2tlbl90eXBlIjoiYWNjZXNzIiwiZXhwIjoxNzU1NjI0NzUzLCJpYXQiOjE3NTU1MzgzNTMsImp0aSI6IjUyNjI4NjYyNmEyZDRkYTY5ZjQ0N2E1NmEzNDU0ZDFjIiwidXNlcl9pZCI6MX0.OR_WhBshpRmI4_FVKet3o4hQWPIgqJBCcxUaug3JwAc
    - name: production_registry_id
      value: 98dd3107-f2df-4d0e-8dec-2a44bc296cd2
    - name: inquiry_id
      value: INQ-20250617-0001
    - name: prefix
      value: /api/orders/inquiries
  scripts:
    - type: before-request
      code: |-
        // Set default values if not exists
        if (!bru.getVar('production_registry_id')) {
            bru.setVar('production_registry_id', '98dd3107-f2df-4d0e-8dec-2a44bc296cd2');
        }

        if (!bru.getVar('inquiry_id')) {
            bru.setVar('inquiry_id', 'I-001-0001');
        }
    - type: after-response
      code: |-
        // Global test validation
        test('Response status should be successful', function () {
            expect(res.getStatus()).to.be.oneOf([200, 201, 204]);
        });

        // Extract and set production registry ID from create responses
        if (res.getStatus() === 201) {
            try {
                var responseJson = res.getBody();
                if (responseJson.id) {
                    bru.setVar('production_registry_id', responseJson.id);
                    console.log('Set production_registry_id to: ' + responseJson.id);
                }
            } catch (e) {
                console.log('Could not parse response JSON');
            }
        }

        // Log errors for debugging
        if (res.getStatus() >= 400) {
            console.log('Error Response:', JSON.stringify(res.getBody()));
        }

docs:
  content: |-
    \# Production Registry API - Complete Handbook

    \## 📖 Table of Contents

    1\. \[Overview\](#overview)  
    2\. \[Authentication\](#authentication)  
    3\. \[Base URL\](#base-url)  
    4\. \[API Endpoints\](#api-endpoints)  
    5\. \[Query Parameters\](#query-parameters)  
    6\. \[Request/Response Formats\](#requestresponse-formats)  
    7\. \[Error Handling\](#error-handling)  
    8\. \[Usage Examples\](#usage-examples)  
    9\. \[Postman Collection\](#postman-collection)  
    10\. \[Best Practices\](#best-practices)

    \## 📋 Overview

    The Production Registry API manages production registries for inquiries, following the same query parameter pattern as the inquiry_views system. This API provides full CRUD operations with soft delete functionality and comprehensive data collection capabilities.

    \### Key Features:  
    \- ✅ Full CRUD operations with query parameter actions  
    \- ✅ Soft delete (cancel production instead of deleting records)  
    \- ✅ Comprehensive filtering and search capabilities  
    \- ✅ Production data collection and analytics  
    \- ✅ Bulk operations support  
    \- ✅ MongoDB integration ready  
    \- ✅ UUID-based identification

    \## 🔐 Authentication

    All endpoints require authentication. Include the authentication token in the request headers:

    \`\`\`http  
    Authorization: Bearer your_jwt_token_here  
    \`\`\`

    \## 🌐 Base URL

    \`\`\`  
    [http://localhost:8000/api/productionplans/production-registries/](http://localhost:8000/api/productionplans/production-registries/)  
    \`\`\`

    \## 📡 API Endpoints

    \### Main Endpoint  
    \- \`GET /api/productionplans/production-registries/\` - List all or get specific registry  
    \- \`POST /api/productionplans/production-registries/\` - Create new registry or perform actions  
    \- \`PUT /api/productionplans/production-registries/\` - Update registry or status  
    \- \`DELETE /api/productionplans/production-registries/\` - Cancel production (soft delete)

    \### Analytics Endpoints  
    \- \`GET /api/productionplans/production-registries/summary/\` - Get summary statistics  
    \- \`GET /api/productionplans/production-registries/analytics/\` - Get detailed analytics

    \## 🔍 Query Parameters

    \### Identification Parameters  
    | Parameter | Type | Description | Example |  
    |-----------|------|-------------|---------|  
    | \`pr_id\` | UUID | Production registry ID (query param) | \`pr_id=98dd3107-f2df-4d0e-8dec-2a44bc296cd2\` |  
    | \`production_registry_id\` | UUID | Alternative ID parameter | \`production_registry_id=98dd3107-...\` |

    \### Filtering Parameters  
    | Parameter | Type | Description | Example |  
    |-----------|------|-------------|---------|  
    | \`status\` | String | Filter by single status | \`status=in_process\` |  
    | \`status_in\` | String | Filter by multiple statuses (comma-separated) | \`status_in=in_process,completed\` |  
    | \`inquiry_type\` | String | Filter by inquiry type | \`inquiry_type=serial\` |  
    | \`company_id\` | Integer | Filter by company ID | \`company_id=1\` |  
    | \`company_name\` | String | Filter by company name (partial match) | \`company_name=ACME\` |  
    | \`customer_id\` | Integer | Filter by customer ID | \`customer_id=1\` |  
    | \`customer_name\` | String | Filter by customer name (partial match) | \`customer_name=ABC Corp\` |  
    | \`date_from\` | Date | Start date filter (YYYY-MM-DD) | \`date_from=2025-01-01\` |  
    | \`date_to\` | Date | End date filter (YYYY-MM-DD) | \`date_to=2025-12-31\` |  
    | \`min_value\` | Float | Minimum inquiry value | \`min_value=10000\` |  
    | \`max_value\` | Float | Maximum inquiry value | \`max_value=100000\` |  
    | \`registered_by\` | Integer | Filter by user ID who registered | \`registered_by=1\` |  
    | \`registered_by_username\` | String | Filter by username (partial match) | \`registered_by_username=john.doe\` |  
    | \`production_number\` | String | Filter by production number (partial match) | \`production_number=PROD-001\` |  
    | \`inquiry_id\` | String | Filter by inquiry ID (partial match) | \`inquiry_id=I-001\` |  
    | \`has_mongo_document\` | Boolean | Filter by MongoDB document existence | \`has_mongo_document=true\` |  
    | \`notes\` | String | Filter by notes content (partial match) | \`notes=urgent\` |

    \### Search and Ordering  
    | Parameter | Type | Description | Example |  
    |-----------|------|-------------|---------|  
    | \`search\` | String | Search across multiple fields | \`search=urgent customer\` |  
    | \`ordering\` | String | Order by field (prefix with - for desc) | \`ordering=-created_at\` |

    \### Pagination  
    | Parameter | Type | Description | Example |  
    |-----------|------|-------------|---------|  
    | \`page\` | Integer | Page number (default: 1) | \`page=2\` |  
    | \`page_size\` | Integer | Items per page (default: 20) | \`page_size=50\` |  
    | \`no_pagination\` | Boolean | Disable pagination | \`no_pagination=true\` |

    \### Action Parameters  
    | Parameter | Type | Description | Used With |  
    |-----------|------|-------------|-----------|  
    | \`action\` | String | Specific action to perform | POST, PUT, DELETE |

    \#### Available Actions:  
    \- **POST Actions:** \`collect_data\`, \`force_data_collection\`  
    \- **PUT Actions:** \`update_status\`, \`update_notes\`, \`update_registry\`  
    \- **DELETE Actions:** \`cancel_production\`

    \## 📝 Request/Response Formats

    \### Status Choices  
    \`\`\`json  
    {  
    "choices": \[  
    {"value": "in_process", "label": "In Process"},  
    {"value": "completed", "label": "Completed"},  
    {"value": "cancelled", "label": "Cancelled"}  
    \]  
    }  
    \`\`\`

    \### Inquiry Type Choices  
    \`\`\`json  
    {  
    "choices": \[  
    {"value": "sample", "label": "Sample"},  
    {"value": "one_time", "label": "One Time"},  
    {"value": "serial", "label": "Serial"}  
    \]  
    }  
    \`\`\`

    \### List Response Format  
    \`\`\`json  
    {  
    "production_registries": \[  
    {  
    "id": "98dd3107-f2df-4d0e-8dec-2a44bc296cd2",  
    "production_number": "PROD-001-20250627",  
    "status": "in_process",  
    "inquiry": {  
    "id": "uuid",  
    "inquiry_id": "I-001-0001",  
    "company_name": "ACME Corp",  
    "inquiry_type": "serial",  
    "status": "in_production",  
    "total_value": "50000.00",  
    "parts_count": 5,  
    "created_at": "2025-06-27T10:00:00Z"  
    },  
    "registered_by_name": "john.doe",  
    "days_in_production": 5,  
    "created_at": "2025-06-27T10:00:00Z",  
    "updated_at": "2025-06-27T15:30:00Z"  
    }  
    \],  
    "total": 150,  
    "page": 1,  
    "page_size": 20,  
    "has_next": true,  
    "has_previous": false,  
    "filters_applied": {  
    "status": "in_process",  
    "company_id": "1",  
    "search": null  
    }  
    }  
    \`\`\`

    \### Detail Response Format  
    \`\`\`json  
    {  
    "id": "98dd3107-f2df-4d0e-8dec-2a44bc296cd2",  
    "production_number": "PROD-001-20250627",  
    "status": "in_process",  
    "inquiry": {  
    "id": "uuid",  
    "inquiry_id": "I-001-0001",  
    "company_details": {  
    "id": 1,  
    "short_name": "ACME",  
    "full_name": "ACME Corporation"  
    },  
    "customer": {  
    "id": 1,  
    "full_name": "John Smith"  
    },  
    "inquiry_parts": \[...\],  
    "delivery_schedules": \[...\],  
    "production_summary": {  
    "parts_count": 5,  
    "total_quantity": 100,  
    "deliveries_count": 3,  
    "total_value": 50000.00  
    }  
    },  
    "registered_by_name": "john.doe",  
    "complete_production_data": {  
    "production_registry_id": "98dd3107-f2df-4d0e-8dec-2a44bc296cd2",  
    "production_number": "PROD-001-20250627",  
    "inquiry_data": {...},  
    "parts_production_data": \[...\],  
    "production_summary": {  
    "total_parts": 5,  
    "total_quantity": 100,  
    "total_production_time_hours": 120.5,  
    "total_material_cost": 25000.00,  
    "equipment_requirements": \["CNC Machine", "Welding Station"\]  
    }  
    },  
    "notes": "High priority production",  
    "created_at": "2025-06-27T10:00:00Z",  
    "updated_at": "2025-06-27T15:30:00Z"  
    }  
    \`\`\`

    \### Error Response Format  
    \`\`\`json  
    {  
    "error": "Error description",  
    "detail": "Detailed error message",  
    "required_params": "pr_id, action",  
    "provided_id": "invalid-id"  
    }  
    \`\`\`

    \## ⚠️ Error Handling

    \### Common HTTP Status Codes  
    \- \`200 OK\` - Successful operation  
    \- \`201 Created\` - Resource created successfully  
    \- \`400 Bad Request\` - Invalid request parameters  
    \- \`401 Unauthorized\` - Authentication required  
    \- \`404 Not Found\` - Resource not found  
    \- \`500 Internal Server Error\` - Server error

    \### Common Error Scenarios  
    1\. **Missing Required Parameters**  
    2\. **Invalid UUID Format**  
    3\. **Resource Not Found**  
    4\. **Invalid Status Transitions**  
    5\. **Authentication Errors**

    \## 🎯 Usage Examples

    \### 1. List All Production Registries  
    \`\`\`http  
    GET /api/productionplans/production-registries/  
    \`\`\`

    \### 2. Get Specific Registry (Two Methods)  
    \`\`\`http  
    \# Method 1: URL path parameter  
    GET /api/productionplans/production-registries/98dd3107-f2df-4d0e-8dec-2a44bc296cd2/

    \# Method 2: Query parameter  
    GET /api/productionplans/production-registries/?pr_id=98dd3107-f2df-4d0e-8dec-2a44bc296cd2  
    \`\`\`

    \### 3. Filter Registries  
    \`\`\`http  
    \# Single filter  
    GET /api/productionplans/production-registries/?status=in_process

    \# Multiple filters  
    GET /api/productionplans/production-registries/?status=in_process&company_id=1&inquiry_type=serial

    \# Date range filter  
    GET /api/productionplans/production-registries/?date_from=2025-01-01&date_to=2025-12-31

    \# Value range filter  
    GET /api/productionplans/production-registries/?min_value=10000&max_value=100000  
    \`\`\`

    \### 4. Search Registries  
    \`\`\`http  
    \# Simple search  
    GET /api/productionplans/production-registries/?search=PROD-001

    \# Search with pagination  
    GET /api/productionplans/production-registries/?search=urgent&page=2&page_size=50

    \# Complex search  
    GET /api/productionplans/production-registries/?search=urgent&status=in_process&company_name=ACME  
    \`\`\`

    \### 5. Create Single Registry  
    \`\`\`http  
    POST /api/productionplans/production-registries/  
    Content-Type: application/json

    {  
    "inquiry_id": "I-001-0001",  
    "notes": "High priority production for urgent delivery"  
    }  
    \`\`\`

    \### 6. Bulk Create Registries  
    \`\`\`http  
    POST /api/productionplans/production-registries/  
    Content-Type: application/json

    {  
    "inquiry_ids": \[  
    "I-001-0001",  
    "I-001-0002",  
    "I-001-0003"  
    \]  
    }  
    \`\`\`

    \### 7. Update Production Status  
    \`\`\`http  
    PUT /api/productionplans/production-registries/?pr_id=98dd3107-f2df-4d0e-8dec-2a44bc296cd2&action=update_status  
    Content-Type: application/json

    {  
    "status": "completed",  
    "notes": "Production completed successfully on schedule"  
    }  
    \`\`\`

    \### 8. Update Production Notes  
    \`\`\`http  
    PUT /api/productionplans/production-registries/?pr_id=98dd3107-f2df-4d0e-8dec-2a44bc296cd2&action=update_notes  
    Content-Type: application/json

    {  
    "notes": "Updated production notes with new requirements"  
    }  
    \`\`\`

    \### 9. Collect Production Data  
    \`\`\`http  
    POST /api/productionplans/production-registries/?pr_id=98dd3107-f2df-4d0e-8dec-2a44bc296cd2&action=collect_data  
    Content-Type: application/json

    {}  
    \`\`\`

    \### 10. Force Data Collection with MongoDB Save  
    \`\`\`http  
    POST /api/productionplans/production-registries/?pr_id=98dd3107-f2df-4d0e-8dec-2a44bc296cd2&action=force_data_collection  
    Content-Type: application/json

    {  
    "save_to_mongodb": true  
    }  
    \`\`\`

    \### 11. Cancel Production (Soft Delete)  
    \`\`\`http  
    DELETE /api/productionplans/production-registries/?pr_id=98dd3107-f2df-4d0e-8dec-2a44bc296cd2&action=cancel_production  
    \`\`\`

    \### 12. Get Production Summary  
    \`\`\`http  
    GET /api/productionplans/production-registries/summary/  
    \`\`\`

    \### 13. Get Production Analytics  
    \`\`\`http  
    GET /api/productionplans/production-registries/analytics/  
    \`\`\`

    \## 📊 Advanced Filtering Examples

    \### Multiple Status Filter  
    \`\`\`http  
    GET /api/productionplans/production-registries/?status_in=in_process,completed,cancelled  
    \`\`\`

    \### User-based Filtering  
    \`\`\`http  
    GET /api/productionplans/production-registries/?registered_by_username=john.doe&has_mongo_document=true  
    \`\`\`

    \### Complex Multi-criteria Search  
    \`\`\`http  
    GET /api/productionplans/production-registries/?search=urgent&production_number=PROD-001&inquiry_id=I-001&customer_name=ABC Corp&ordering=-created_at  
    \`\`\`

    \### Company and Date Range  
    \`\`\`http  
    GET /api/productionplans/production-registries/?company_name=ACME&date_from=2025-01-01&date_to=2025-06-30&min_value=50000  
    \`\`\`

    \## 🧪 Testing Scenarios

    \### Workflow 1: Complete CRUD Lifecycle  
    1\. Create single production registry  
    2\. Get the registry details  
    3\. Update production status  
    4\. Collect production data  
    5\. Update notes  
    6\. Cancel production

    \### Workflow 2: Bulk Operations  
    1\. Bulk create multiple registries  
    2\. List all with filters  
    3\. Search across registries  
    4\. Get analytics summary

    \### Workflow 3: Data Collection  
    1\. Create test registry  
    2\. Collect initial production data  
    3\. Force data collection with MongoDB save  
    4\. Verify data integrity

    \### Workflow 4: Error Handling  
    1\. Test with invalid UUID  
    2\. Test missing required parameters  
    3\. Test invalid status transitions  
    4\. Test authentication errors

    \## 🎯 Best Practices

    \### 1. Always Use UUIDs  
    \- Production registry IDs are UUID4 format  
    \- Never use sequential integers  
    \- Clean UUID strings (remove quotes)

    \### 2. Parameter Naming  
    \- Use \`pr_id\` for query parameters (shorter)  
    \- Use \`production_registry_id\` for body parameters (descriptive)  
    \- Follow consistent naming patterns

    \### 3. Status Management  
    \- Always validate status transitions  
    \- Use soft delete (cancel) instead of hard delete  
    \- Track status change history

    \### 4. Error Handling  
    \- Always check response status codes  
    \- Handle UUID format validation  
    \- Provide meaningful error messages

    \### 5. Pagination  
    \- Use pagination for large datasets  
    \- Set reasonable page_size limits  
    \- Use \`no_pagination=true\` only when necessary

    \### 6. Filtering Best Practices  
    \- Combine multiple filters for specific results  
    \- Use date ranges for time-based queries  
    \- Use search for text-based queries

    \### 7. Data Collection  
    \- Collect production data after status changes  
    \- Use force collection for data updates  
    \- Save to MongoDB for external processing

    \### 8. Security  
    \- Always include authentication headers  
    \- Validate user permissions  
    \- Log all production changes

    \## 🔄 Common Workflows

    \### Production Planning Workflow  
    \`\`\`  
    1\. Inquiry approved →  
    2\. Create production registry →  
    3\. Collect initial data →  
    4\. Update to in_process →  
    5\. Monitor progress →  
    6\. Update to completed →  
    7\. Final data collection  
    \`\`\`

    \### Error Recovery Workflow  
    \`\`\`  
    1\. Detect error →  
    2\. Cancel production →  
    3\. Fix issues →  
    4\. Create new registry →  
    5\. Resume production  
    \`\`\`

    \### Analytics Workflow  
    \`\`\`  
    1\. Collect all production data →  
    2\. Get summary statistics →  
    3\. Get detailed analytics →  
    4\. Generate reports →  
    5\. Monitor KPIs  
    \`\`\`

    \## 📚 Related Documentation

    \- \[Inquiry API Documentation\](link-to-inquiry-docs)  
    \- \[Parts API Documentation\](link-to-parts-docs)  
    \- \[Authentication Guide\](link-to-auth-docs)  
    \- \[MongoDB Integration Guide\](link-to-mongo-docs)

    \## 🆘 Support

    For technical support or questions:  
    \- Check the error messages and status codes  
    \- Verify authentication and permissions  
    \- Review the query parameter formats  
    \- Test with the provided Postman collection

    \## 📝 Changelog

    \### Version 1.0.0 (2025-06-27)  
    \- Initial release  
    \- Full CRUD operations with query parameters  
    \- UUID-based identification  
    \- Soft delete functionality  
    \- Production data collection  
    \- Comprehensive filtering and search  
    \- Analytics and summary endpoints
  type: text/markdown
bundled: false
extensions:
  bruno:
    ignore:
      - node_modules
      - .git
